,symbol_staging,p_staging,nt_staging,tv_staging,dq_staging,coi_staging,oic_staging
21,ACC,-14.0,60.57,12807.0,128993,,
24,ADANIENT,-3.35,40.61,12979.0,252093,,
27,ADANIPORTS,-3.8,87.21,27343.0,1025544,,
28,ADANIPOWER,-1.2,31.40,14389.0,1081482,,
71,AMARAJABAT,-10.7,22.62,10951.0,60333,,
74,AMBUJACEM,-0.35,28.27,12100.0,450483,,
91,APOLLOHOSP,-18.6,123.72,25709.0,147979,,
93,APOLLOTYRE,0.15,185.50,82050.0,2585272,,
115,ASHOKLEY,0.05,106.34,43703.0,3407919,,
117,ASIANPAINT,3.45,178.75,41170.0,254643,,
131,AUROPHARMA,-3.6,103.24,30113.0,785640,,
141,AXISBANK,-11.25,539.96,88795.0,2315316,,
146,BAJAJ-AUTO,-33.1,88.85,16415.0,114230,,
149,BAJAJFINSV,-105.5,148.94,17509.0,38007,,
152,BAJFINANCE,-31.9,465.52,61983.0,382380,,
156,BALKRISIND,-23.05,99.80,20708.0,144339,,
166,BANKBARODA,-5.7,384.78,106066.0,5902245,,
172,BATAINDIA,-4.5,92.76,24396.0,112140,,
181,BEL,0.25,84.91,30070.0,2031223,,
184,BERGEPAINT,7.0,270.89,68870.0,1079529,,
193,BHARATFORG,-1.55,23.18,7976.0,139362,,
197,BHARTIARTL,-4.4,510.46,103951.0,3247080,,
198,BHEL,-2.35,93.68,49839.0,5325906,,
203,BIOCON,2.6,142.86,38424.0,1147725,,
218,BOSCHLTD,-548.3,24.77,5782.0,6642,,
219,BPCL,-2.9,229.96,51791.0,1123949,,
222,BRITANNIA,-11.7,63.62,13054.0,113843,,
223,BRITANNIA,-11.7,63.62,182.0,113843,,
224,BRITANNIA,-11.7,63.62,13054.0,50368,,
225,BRITANNIA,-11.7,63.62,182.0,50368,,
236,CADILAHC,-2.35,31.95,16016.0,420139,,
238,CANBK,-10.6,174.89,51220.0,737503,,
246,CASTROLIND,-2.65,9.58,8022.0,305396,,
258,CENTURYTEX,14.0,63.64,26997.0,277628,,
261,CESC,-16.25,16.33,5428.0,59948,,
270,CHOLAFIN,-1.45,36.85,12984.0,816823,,
276,CIPLA,-6.1,116.34,35180.0,1602559,,
283,COALINDIA,-4.95,109.23,42194.0,2701973,,
286,COLPAL,29.1,132.70,31064.0,390066,,
289,CONCOR,-6.75,145.33,44470.0,1044752,,
311,CUMMINSIND,-19.35,44.28,12605.0,448070,,
316,DABUR,-2.85,75.35,24387.0,569307,,
357,DISHTV,-2.45,206.77,131942.0,38500507,,
358,DIVISLAB,-21.35,97.49,24232.0,151741,,
360,DLF,-3.15,199.81,49779.0,1183092,,
369,DRREDDY,9.4,288.61,55397.0,285121,,
392,EICHERMOT,-497.0,301.62,36976.0,25666,,
414,EQUITAS,1.15,197.71,71355.0,4159863,,
419,ESCORTS,-17.7,102.96,32388.0,231135,,
425,EXIDEIND,-4.9,29.93,28004.0,672253,,
433,FEDERALBNK,-2.7,84.94,35012.0,2824018,,
456,GAIL,-4.05,144.84,82306.0,5549342,,
490,GLENMARK,-4.4,122.61,49101.0,601491,,
496,GMRINFRA,-0.65,16.65,5354.0,3765601,,
502,GODREJCP,-6.8,61.77,34716.0,346310,,
519,GRASIM,-3.2,131.76,31792.0,171504,,
552,HAVELLS,-10.4,65.68,20479.0,312992,,
558,HCLTECH,-0.9,93.40,35003.0,938110,,
559,HDFC,-65.55,784.42,129457.0,2099384,,
561,HDFCBANK,-0.2,861.54,148575.0,4626402,,
570,HEROMOTOCO,-33.6,178.75,46047.0,294119,,
572,HEXAWARE,-2.35,11.29,6031.0,80055,,
581,HINDALCO,-1.05,75.72,21835.0,776135,,
587,HINDPETRO,-1.9,100.50,40183.0,1652186,,
588,HINDUNILVR,-9.65,133.67,47963.0,357532,,
619,IBULHSGFIN,-11.6,"1,083.43",352263.0,2394180,,
620,IBULHSGFIN,-11.6,"1,083.43",14.0,2394180,,
621,IBULHSGFIN,-11.6,"1,083.43",1.0,2394180,,
622,IBULHSGFIN,-11.6,"1,083.43",352263.0,312,,
623,IBULHSGFIN,-11.6,"1,083.43",14.0,312,,
624,IBULHSGFIN,-11.6,"1,083.43",1.0,312,,
625,IBULHSGFIN,-11.6,"1,083.43",352263.0,5,,
626,IBULHSGFIN,-11.6,"1,083.43",14.0,5,,
627,IBULHSGFIN,-11.6,"1,083.43",1.0,5,,
642,ICICIBANK,-2.85,"1,312.63",160717.0,13091355,,
654,ICICIPRULI,-4.9,62.09,20508.0,515049,,
660,IDEA,-0.4,357.79,200552.0,158903347,,
662,IDFCFIRSTB,-1.4,64.27,25159.0,5986465,,
663,IDFCFIRSTB,-1.4,64.27,5.0,5986465,,
664,IDFCFIRSTB,-1.4,64.27,10.0,5986465,,
665,IDFCFIRSTB,-1.4,64.27,1.0,5986465,,
666,IDFCFIRSTB,-1.4,64.27,4.0,5986465,,
667,IDFCFIRSTB,-1.4,64.27,22.0,5986465,,
668,IDFCFIRSTB,-1.4,64.27,25159.0,9,,
669,IDFCFIRSTB,-1.4,64.27,5.0,9,,
670,IDFCFIRSTB,-1.4,64.27,10.0,9,,
671,IDFCFIRSTB,-1.4,64.27,1.0,9,,
672,IDFCFIRSTB,-1.4,64.27,4.0,9,,
673,IDFCFIRSTB,-1.4,64.27,22.0,9,,
674,IDFCFIRSTB,-1.4,64.27,25159.0,45,,
675,IDFCFIRSTB,-1.4,64.27,5.0,45,,
676,IDFCFIRSTB,-1.4,64.27,10.0,45,,
677,IDFCFIRSTB,-1.4,64.27,1.0,45,,
678,IDFCFIRSTB,-1.4,64.27,4.0,45,,
679,IDFCFIRSTB,-1.4,64.27,22.0,45,,
680,IDFCFIRSTB,-1.4,64.27,25159.0,2,,
681,IDFCFIRSTB,-1.4,64.27,5.0,2,,
682,IDFCFIRSTB,-1.4,64.27,10.0,2,,
683,IDFCFIRSTB,-1.4,64.27,1.0,2,,
684,IDFCFIRSTB,-1.4,64.27,4.0,2,,
685,IDFCFIRSTB,-1.4,64.27,22.0,2,,
686,IDFCFIRSTB,-1.4,64.27,25159.0,6,,
687,IDFCFIRSTB,-1.4,64.27,5.0,6,,
688,IDFCFIRSTB,-1.4,64.27,10.0,6,,
689,IDFCFIRSTB,-1.4,64.27,1.0,6,,
690,IDFCFIRSTB,-1.4,64.27,4.0,6,,
691,IDFCFIRSTB,-1.4,64.27,22.0,6,,
692,IDFCFIRSTB,-1.4,64.27,25159.0,55,,
693,IDFCFIRSTB,-1.4,64.27,5.0,55,,
694,IDFCFIRSTB,-1.4,64.27,10.0,55,,
695,IDFCFIRSTB,-1.4,64.27,1.0,55,,
696,IDFCFIRSTB,-1.4,64.27,4.0,55,,
697,IDFCFIRSTB,-1.4,64.27,22.0,55,,
710,IGL,2.1,75.01,19122.0,347931,,
734,INDIGO,4.3,277.86,60722.0,380825,,
745,INDUSINDBK,-51.05,444.77,82494.0,700282,,
750,INFRATEL,12.95,759.04,228584.0,3545750,,
751,INFY,-0.35,373.89,79319.0,2470841,,
763,IOC,-1.55,77.26,38569.0,2536733,,
783,ITC,-3.95,253.52,79374.0,5938137,,
810,JINDALSTEL,-2.3,592.51,224430.0,3418373,,
835,JSWSTEEL,1.85,198.91,47321.0,932444,,
836,JSWSTEEL,1.85,198.91,20.0,932444,,
837,JSWSTEEL,1.85,198.91,47321.0,11201,,
838,JSWSTEEL,1.85,198.91,20.0,11201,,
841,JUBLFOOD,-5.3,92.32,16540.0,83852,,
845,JUSTDIAL,-9.9,162.46,43426.0,148410,,
889,KOTAKBANK,26.95,634.33,85107.0,1865872,,
924,LICHSGFIN,-26.55,127.90,51932.0,725888,,
937,LT,-14.35,427.03,102897.0,1693071,,
938,L&TFH,-2.45,204.16,98481.0,6201067,,
952,LUPIN,-20.65,87.64,21946.0,439069,,
984,MANAPPURAM,-2.0,35.87,10611.0,580908,,
992,MARICO,-6.7,99.01,30891.0,2053980,,
996,MARUTI,-126.1,535.81,69329.0,116126,,
1007,MCDOWELL-N,-9.25,45.57,12537.0,382439,,
1016,MFSL,-8.8,68.79,20996.0,320122,,
1018,MGL,-1.1,44.88,16359.0,221603,,
1024,MINDTREE,-25.4,48.96,14492.0,147737,,
1027,M&M,-14.75,175.79,65372.0,1232942,,
1028,M&MFIN,-12.7,69.16,27427.0,989307,,
1029,M&MFIN,-12.7,69.16,3.0,989307,,
1030,M&MFIN,-12.7,69.16,2.0,989307,,
1031,M&MFIN,-12.7,69.16,27427.0,110,,
1032,M&MFIN,-12.7,69.16,3.0,110,,
1033,M&MFIN,-12.7,69.16,2.0,110,,
1034,M&MFIN,-12.7,69.16,27427.0,150,,
1035,M&MFIN,-12.7,69.16,3.0,150,,
1036,M&MFIN,-12.7,69.16,2.0,150,,
1047,MOTHERSUMI,0.75,87.39,45086.0,2332020,,
1052,MRF,-257.0,37.98,3661.0,2361,,
1065,MUTHOOTFIN,-2.25,91.24,32304.0,535403,,
1076,NATIONALUM,-0.6,12.21,6701.0,660247,,
1081,NBCC,-1.6,52.42,29051.0,3757214,,
1084,NCC,-3.4,104.34,49019.0,3899676,,
1095,NESTLEIND,-139.65,83.22,15274.0,33634,,
1125,NIITTECH,-23.3,11.33,3796.0,12580,,
1133,NMDC,0.35,48.58,22851.0,1076624,,
1139,NTPC,-1.4,43.40,21066.0,1660586,,
1140,NTPC,-1.4,43.40,9.0,1660586,,
1141,NTPC,-1.4,43.40,1.0,1660586,,
1142,NTPC,-1.4,43.40,9.0,1660586,,
1143,NTPC,-1.4,43.40,69.0,1660586,,
1144,NTPC,-1.4,43.40,21066.0,97,,
1145,NTPC,-1.4,43.40,9.0,97,,
1146,NTPC,-1.4,43.40,1.0,97,,
1147,NTPC,-1.4,43.40,9.0,97,,
1148,NTPC,-1.4,43.40,69.0,97,,
1149,NTPC,-1.4,43.40,21066.0,25,,
1150,NTPC,-1.4,43.40,9.0,25,,
1151,NTPC,-1.4,43.40,1.0,25,,
1152,NTPC,-1.4,43.40,9.0,25,,
1153,NTPC,-1.4,43.40,69.0,25,,
1154,NTPC,-1.4,43.40,21066.0,500,,
1155,NTPC,-1.4,43.40,9.0,500,,
1156,NTPC,-1.4,43.40,1.0,500,,
1157,NTPC,-1.4,43.40,9.0,500,,
1158,NTPC,-1.4,43.40,69.0,500,,
1159,NTPC,-1.4,43.40,21066.0,35678,,
1160,NTPC,-1.4,43.40,9.0,35678,,
1161,NTPC,-1.4,43.40,1.0,35678,,
1162,NTPC,-1.4,43.40,9.0,35678,,
1163,NTPC,-1.4,43.40,69.0,35678,,
1170,OIL,-2.9,16.39,8657.0,364429,,
1179,ONGC,-2.4,64.76,34833.0,2030402,,
1199,PAGEIND,-254.4,27.52,4525.0,2346,,
1217,PEL,-63.25,185.94,36294.0,102412,,
1222,PETRONET,-4.4,41.78,31817.0,960233,,
1223,PFC,-5.65,123.97,31129.0,3482797,,
1224,PFC,-5.65,123.97,12.0,3482797,,
1225,PFC,-5.65,123.97,2.0,3482797,,
1226,PFC,-5.65,123.97,31129.0,2233,,
1227,PFC,-5.65,123.97,12.0,2233,,
1228,PFC,-5.65,123.97,2.0,2233,,
1229,PFC,-5.65,123.97,31129.0,23,,
1230,PFC,-5.65,123.97,12.0,23,,
1231,PFC,-5.65,123.97,2.0,23,,
1241,PIDILITIND,7.95,84.74,21444.0,166521,,
1249,PNB,-2.15,137.14,49590.0,4914358,,
1260,POWERGRID,-1.05,56.67,23650.0,1795941,,
1288,PVR,-46.85,72.70,17603.0,71246,,
1302,RAMCOCEM,-5.0,8.60,3692.0,42189,,
1311,RBLBANK,-27.5,834.49,211213.0,3991263,,
1314,RECLTD,-5.25,66.26,33649.0,1336174,,
1315,RECLTD,-5.25,66.26,3.0,1336174,,
1316,RECLTD,-5.25,66.26,7.0,1336174,,
1317,RECLTD,-5.25,66.26,20.0,1336174,,
1318,RECLTD,-5.25,66.26,3.0,1336174,,
1319,RECLTD,-5.25,66.26,28.0,1336174,,
1320,RECLTD,-5.25,66.26,1.0,1336174,,
1321,RECLTD,-5.25,66.26,2.0,1336174,,
1322,RECLTD,-5.25,66.26,3.0,1336174,,
1323,RECLTD,-5.25,66.26,33649.0,700,,
1324,RECLTD,-5.25,66.26,3.0,700,,
1325,RECLTD,-5.25,66.26,7.0,700,,
1326,RECLTD,-5.25,66.26,20.0,700,,
1327,RECLTD,-5.25,66.26,3.0,700,,
1328,RECLTD,-5.25,66.26,28.0,700,,
1329,RECLTD,-5.25,66.26,1.0,700,,
1330,RECLTD,-5.25,66.26,2.0,700,,
1331,RECLTD,-5.25,66.26,3.0,700,,
1332,RECLTD,-5.25,66.26,33649.0,915,,
1333,RECLTD,-5.25,66.26,3.0,915,,
1334,RECLTD,-5.25,66.26,7.0,915,,
1335,RECLTD,-5.25,66.26,20.0,915,,
1336,RECLTD,-5.25,66.26,3.0,915,,
1337,RECLTD,-5.25,66.26,28.0,915,,
1338,RECLTD,-5.25,66.26,1.0,915,,
1339,RECLTD,-5.25,66.26,2.0,915,,
1340,RECLTD,-5.25,66.26,3.0,915,,
1341,RECLTD,-5.25,66.26,33649.0,940,,
1342,RECLTD,-5.25,66.26,3.0,940,,
1343,RECLTD,-5.25,66.26,7.0,940,,
1344,RECLTD,-5.25,66.26,20.0,940,,
1345,RECLTD,-5.25,66.26,3.0,940,,
1346,RECLTD,-5.25,66.26,28.0,940,,
1347,RECLTD,-5.25,66.26,1.0,940,,
1348,RECLTD,-5.25,66.26,2.0,940,,
1349,RECLTD,-5.25,66.26,3.0,940,,
1350,RECLTD,-5.25,66.26,33649.0,25,,
1351,RECLTD,-5.25,66.26,3.0,25,,
1352,RECLTD,-5.25,66.26,7.0,25,,
1353,RECLTD,-5.25,66.26,20.0,25,,
1354,RECLTD,-5.25,66.26,3.0,25,,
1355,RECLTD,-5.25,66.26,28.0,25,,
1356,RECLTD,-5.25,66.26,1.0,25,,
1357,RECLTD,-5.25,66.26,2.0,25,,
1358,RECLTD,-5.25,66.26,3.0,25,,
1359,RECLTD,-5.25,66.26,33649.0,2047,,
1360,RECLTD,-5.25,66.26,3.0,2047,,
1361,RECLTD,-5.25,66.26,7.0,2047,,
1362,RECLTD,-5.25,66.26,20.0,2047,,
1363,RECLTD,-5.25,66.26,3.0,2047,,
1364,RECLTD,-5.25,66.26,28.0,2047,,
1365,RECLTD,-5.25,66.26,1.0,2047,,
1366,RECLTD,-5.25,66.26,2.0,2047,,
1367,RECLTD,-5.25,66.26,3.0,2047,,
1368,RECLTD,-5.25,66.26,33649.0,3,,
1369,RECLTD,-5.25,66.26,3.0,3,,
1370,RECLTD,-5.25,66.26,7.0,3,,
1371,RECLTD,-5.25,66.26,20.0,3,,
1372,RECLTD,-5.25,66.26,3.0,3,,
1373,RECLTD,-5.25,66.26,28.0,3,,
1374,RECLTD,-5.25,66.26,1.0,3,,
1375,RECLTD,-5.25,66.26,2.0,3,,
1376,RECLTD,-5.25,66.26,3.0,3,,
1377,RECLTD,-5.25,66.26,33649.0,50,,
1378,RECLTD,-5.25,66.26,3.0,50,,
1379,RECLTD,-5.25,66.26,7.0,50,,
1380,RECLTD,-5.25,66.26,20.0,50,,
1381,RECLTD,-5.25,66.26,3.0,50,,
1382,RECLTD,-5.25,66.26,28.0,50,,
1383,RECLTD,-5.25,66.26,1.0,50,,
1384,RECLTD,-5.25,66.26,2.0,50,,
1385,RECLTD,-5.25,66.26,3.0,50,,
1386,RECLTD,-5.25,66.26,33649.0,110,,
1387,RECLTD,-5.25,66.26,3.0,110,,
1388,RECLTD,-5.25,66.26,7.0,110,,
1389,RECLTD,-5.25,66.26,20.0,110,,
1390,RECLTD,-5.25,66.26,3.0,110,,
1391,RECLTD,-5.25,66.26,28.0,110,,
1392,RECLTD,-5.25,66.26,1.0,110,,
1393,RECLTD,-5.25,66.26,2.0,110,,
1394,RECLTD,-5.25,66.26,3.0,110,,
1400,RELIANCE,3.65,930.39,127437.0,1885092,,
1442,SAIL,-0.5,106.04,35775.0,1890975,,
1469,SBIN,-18.0,"1,528.68",399338.0,10738207,,
1470,SBIN,-18.0,"1,528.68",3.0,10738207,,
1471,SBIN,-18.0,"1,528.68",23.0,10738207,,
1472,SBIN,-18.0,"1,528.68",399338.0,2,,
1473,SBIN,-18.0,"1,528.68",3.0,2,,
1474,SBIN,-18.0,"1,528.68",23.0,2,,
1475,SBIN,-18.0,"1,528.68",399338.0,145,,
1476,SBIN,-18.0,"1,528.68",3.0,145,,
1477,SBIN,-18.0,"1,528.68",23.0,145,,
1538,SHREECEM,-102.55,31.60,3939.0,7068,,
1551,SIEMENS,-2.1,42.26,15591.0,105137,,
1607,SRF,-20.3,63.76,11702.0,44943,,
1610,SRTRANSFIN,-37.6,54.15,20663.0,127094,,
1611,SRTRANSFIN,-37.6,54.15,1.0,127094,,
1612,SRTRANSFIN,-37.6,54.15,4.0,127094,,
1613,SRTRANSFIN,-37.6,54.15,28.0,127094,,
1614,SRTRANSFIN,-37.6,54.15,18.0,127094,,
1615,SRTRANSFIN,-37.6,54.15,5.0,127094,,
1616,SRTRANSFIN,-37.6,54.15,11.0,127094,,
1617,SRTRANSFIN,-37.6,54.15,8.0,127094,,
1618,SRTRANSFIN,-37.6,54.15,2.0,127094,,
1619,SRTRANSFIN,-37.6,54.15,3.0,127094,,
1620,SRTRANSFIN,-37.6,54.15,3.0,127094,,
1621,SRTRANSFIN,-37.6,54.15,5.0,127094,,
1622,SRTRANSFIN,-37.6,54.15,3.0,127094,,
1623,SRTRANSFIN,-37.6,54.15,2.0,127094,,
1624,SRTRANSFIN,-37.6,54.15,1.0,127094,,
1625,SRTRANSFIN,-37.6,54.15,1.0,127094,,
1626,SRTRANSFIN,-37.6,54.15,1.0,127094,,
1627,SRTRANSFIN,-37.6,54.15,9.0,127094,,
1628,SRTRANSFIN,-37.6,54.15,1.0,127094,,
1629,SRTRANSFIN,-37.6,54.15,4.0,127094,,
1630,SRTRANSFIN,-37.6,54.15,2.0,127094,,
1631,SRTRANSFIN,-37.6,54.15,2.0,127094,,
1632,SRTRANSFIN,-37.6,54.15,5.0,127094,,
1633,SRTRANSFIN,-37.6,54.15,1.0,127094,,
1634,SRTRANSFIN,-37.6,54.15,3.0,127094,,
1635,SRTRANSFIN,-37.6,54.15,1.0,127094,,
1636,SRTRANSFIN,-37.6,54.15,3.0,127094,,
1637,SRTRANSFIN,-37.6,54.15,1.0,127094,,
1638,SRTRANSFIN,-37.6,54.15,1.0,127094,,
1639,SRTRANSFIN,-37.6,54.15,1.0,127094,,
1640,SRTRANSFIN,-37.6,54.15,20663.0,110,,
1641,SRTRANSFIN,-37.6,54.15,1.0,110,,
1642,SRTRANSFIN,-37.6,54.15,4.0,110,,
1643,SRTRANSFIN,-37.6,54.15,28.0,110,,
1644,SRTRANSFIN,-37.6,54.15,18.0,110,,
1645,SRTRANSFIN,-37.6,54.15,5.0,110,,
1646,SRTRANSFIN,-37.6,54.15,11.0,110,,
1647,SRTRANSFIN,-37.6,54.15,8.0,110,,
1648,SRTRANSFIN,-37.6,54.15,2.0,110,,
1649,SRTRANSFIN,-37.6,54.15,3.0,110,,
1650,SRTRANSFIN,-37.6,54.15,3.0,110,,
1651,SRTRANSFIN,-37.6,54.15,5.0,110,,
1652,SRTRANSFIN,-37.6,54.15,3.0,110,,
1653,SRTRANSFIN,-37.6,54.15,2.0,110,,
1654,SRTRANSFIN,-37.6,54.15,1.0,110,,
1655,SRTRANSFIN,-37.6,54.15,1.0,110,,
1656,SRTRANSFIN,-37.6,54.15,1.0,110,,
1657,SRTRANSFIN,-37.6,54.15,9.0,110,,
1658,SRTRANSFIN,-37.6,54.15,1.0,110,,
1659,SRTRANSFIN,-37.6,54.15,4.0,110,,
1660,SRTRANSFIN,-37.6,54.15,2.0,110,,
1661,SRTRANSFIN,-37.6,54.15,2.0,110,,
1662,SRTRANSFIN,-37.6,54.15,5.0,110,,
1663,SRTRANSFIN,-37.6,54.15,1.0,110,,
1664,SRTRANSFIN,-37.6,54.15,3.0,110,,
1665,SRTRANSFIN,-37.6,54.15,1.0,110,,
1666,SRTRANSFIN,-37.6,54.15,3.0,110,,
1667,SRTRANSFIN,-37.6,54.15,1.0,110,,
1668,SRTRANSFIN,-37.6,54.15,1.0,110,,
1669,SRTRANSFIN,-37.6,54.15,1.0,110,,
1670,SRTRANSFIN,-37.6,54.15,20663.0,30,,
1671,SRTRANSFIN,-37.6,54.15,1.0,30,,
1672,SRTRANSFIN,-37.6,54.15,4.0,30,,
1673,SRTRANSFIN,-37.6,54.15,28.0,30,,
1674,SRTRANSFIN,-37.6,54.15,18.0,30,,
1675,SRTRANSFIN,-37.6,54.15,5.0,30,,
1676,SRTRANSFIN,-37.6,54.15,11.0,30,,
1677,SRTRANSFIN,-37.6,54.15,8.0,30,,
1678,SRTRANSFIN,-37.6,54.15,2.0,30,,
1679,SRTRANSFIN,-37.6,54.15,3.0,30,,
1680,SRTRANSFIN,-37.6,54.15,3.0,30,,
1681,SRTRANSFIN,-37.6,54.15,5.0,30,,
1682,SRTRANSFIN,-37.6,54.15,3.0,30,,
1683,SRTRANSFIN,-37.6,54.15,2.0,30,,
1684,SRTRANSFIN,-37.6,54.15,1.0,30,,
1685,SRTRANSFIN,-37.6,54.15,1.0,30,,
1686,SRTRANSFIN,-37.6,54.15,1.0,30,,
1687,SRTRANSFIN,-37.6,54.15,9.0,30,,
1688,SRTRANSFIN,-37.6,54.15,1.0,30,,
1689,SRTRANSFIN,-37.6,54.15,4.0,30,,
1690,SRTRANSFIN,-37.6,54.15,2.0,30,,
1691,SRTRANSFIN,-37.6,54.15,2.0,30,,
1692,SRTRANSFIN,-37.6,54.15,5.0,30,,
1693,SRTRANSFIN,-37.6,54.15,1.0,30,,
1694,SRTRANSFIN,-37.6,54.15,3.0,30,,
1695,SRTRANSFIN,-37.6,54.15,1.0,30,,
1696,SRTRANSFIN,-37.6,54.15,3.0,30,,
1697,SRTRANSFIN,-37.6,54.15,1.0,30,,
1698,SRTRANSFIN,-37.6,54.15,1.0,30,,
1699,SRTRANSFIN,-37.6,54.15,1.0,30,,
1700,SRTRANSFIN,-37.6,54.15,20663.0,739,,
1701,SRTRANSFIN,-37.6,54.15,1.0,739,,
1702,SRTRANSFIN,-37.6,54.15,4.0,739,,
1703,SRTRANSFIN,-37.6,54.15,28.0,739,,
1704,SRTRANSFIN,-37.6,54.15,18.0,739,,
1705,SRTRANSFIN,-37.6,54.15,5.0,739,,
1706,SRTRANSFIN,-37.6,54.15,11.0,739,,
1707,SRTRANSFIN,-37.6,54.15,8.0,739,,
1708,SRTRANSFIN,-37.6,54.15,2.0,739,,
1709,SRTRANSFIN,-37.6,54.15,3.0,739,,
1710,SRTRANSFIN,-37.6,54.15,3.0,739,,
1711,SRTRANSFIN,-37.6,54.15,5.0,739,,
1712,SRTRANSFIN,-37.6,54.15,3.0,739,,
1713,SRTRANSFIN,-37.6,54.15,2.0,739,,
1714,SRTRANSFIN,-37.6,54.15,1.0,739,,
1715,SRTRANSFIN,-37.6,54.15,1.0,739,,
1716,SRTRANSFIN,-37.6,54.15,1.0,739,,
1717,SRTRANSFIN,-37.6,54.15,9.0,739,,
1718,SRTRANSFIN,-37.6,54.15,1.0,739,,
1719,SRTRANSFIN,-37.6,54.15,4.0,739,,
1720,SRTRANSFIN,-37.6,54.15,2.0,739,,
1721,SRTRANSFIN,-37.6,54.15,2.0,739,,
1722,SRTRANSFIN,-37.6,54.15,5.0,739,,
1723,SRTRANSFIN,-37.6,54.15,1.0,739,,
1724,SRTRANSFIN,-37.6,54.15,3.0,739,,
1725,SRTRANSFIN,-37.6,54.15,1.0,739,,
1726,SRTRANSFIN,-37.6,54.15,3.0,739,,
1727,SRTRANSFIN,-37.6,54.15,1.0,739,,
1728,SRTRANSFIN,-37.6,54.15,1.0,739,,
1729,SRTRANSFIN,-37.6,54.15,1.0,739,,
1730,SRTRANSFIN,-37.6,54.15,20663.0,45,,
1731,SRTRANSFIN,-37.6,54.15,1.0,45,,
1732,SRTRANSFIN,-37.6,54.15,4.0,45,,
1733,SRTRANSFIN,-37.6,54.15,28.0,45,,
1734,SRTRANSFIN,-37.6,54.15,18.0,45,,
1735,SRTRANSFIN,-37.6,54.15,5.0,45,,
1736,SRTRANSFIN,-37.6,54.15,11.0,45,,
1737,SRTRANSFIN,-37.6,54.15,8.0,45,,
1738,SRTRANSFIN,-37.6,54.15,2.0,45,,
1739,SRTRANSFIN,-37.6,54.15,3.0,45,,
1740,SRTRANSFIN,-37.6,54.15,3.0,45,,
1741,SRTRANSFIN,-37.6,54.15,5.0,45,,
1742,SRTRANSFIN,-37.6,54.15,3.0,45,,
1743,SRTRANSFIN,-37.6,54.15,2.0,45,,
1744,SRTRANSFIN,-37.6,54.15,1.0,45,,
1745,SRTRANSFIN,-37.6,54.15,1.0,45,,
1746,SRTRANSFIN,-37.6,54.15,1.0,45,,
1747,SRTRANSFIN,-37.6,54.15,9.0,45,,
1748,SRTRANSFIN,-37.6,54.15,1.0,45,,
1749,SRTRANSFIN,-37.6,54.15,4.0,45,,
1750,SRTRANSFIN,-37.6,54.15,2.0,45,,
1751,SRTRANSFIN,-37.6,54.15,2.0,45,,
1752,SRTRANSFIN,-37.6,54.15,5.0,45,,
1753,SRTRANSFIN,-37.6,54.15,1.0,45,,
1754,SRTRANSFIN,-37.6,54.15,3.0,45,,
1755,SRTRANSFIN,-37.6,54.15,1.0,45,,
1756,SRTRANSFIN,-37.6,54.15,3.0,45,,
1757,SRTRANSFIN,-37.6,54.15,1.0,45,,
1758,SRTRANSFIN,-37.6,54.15,1.0,45,,
1759,SRTRANSFIN,-37.6,54.15,1.0,45,,
1760,SRTRANSFIN,-37.6,54.15,20663.0,25,,
1761,SRTRANSFIN,-37.6,54.15,1.0,25,,
1762,SRTRANSFIN,-37.6,54.15,4.0,25,,
1763,SRTRANSFIN,-37.6,54.15,28.0,25,,
1764,SRTRANSFIN,-37.6,54.15,18.0,25,,
1765,SRTRANSFIN,-37.6,54.15,5.0,25,,
1766,SRTRANSFIN,-37.6,54.15,11.0,25,,
1767,SRTRANSFIN,-37.6,54.15,8.0,25,,
1768,SRTRANSFIN,-37.6,54.15,2.0,25,,
1769,SRTRANSFIN,-37.6,54.15,3.0,25,,
1770,SRTRANSFIN,-37.6,54.15,3.0,25,,
1771,SRTRANSFIN,-37.6,54.15,5.0,25,,
1772,SRTRANSFIN,-37.6,54.15,3.0,25,,
1773,SRTRANSFIN,-37.6,54.15,2.0,25,,
1774,SRTRANSFIN,-37.6,54.15,1.0,25,,
1775,SRTRANSFIN,-37.6,54.15,1.0,25,,
1776,SRTRANSFIN,-37.6,54.15,1.0,25,,
1777,SRTRANSFIN,-37.6,54.15,9.0,25,,
1778,SRTRANSFIN,-37.6,54.15,1.0,25,,
1779,SRTRANSFIN,-37.6,54.15,4.0,25,,
1780,SRTRANSFIN,-37.6,54.15,2.0,25,,
1781,SRTRANSFIN,-37.6,54.15,2.0,25,,
1782,SRTRANSFIN,-37.6,54.15,5.0,25,,
1783,SRTRANSFIN,-37.6,54.15,1.0,25,,
1784,SRTRANSFIN,-37.6,54.15,3.0,25,,
1785,SRTRANSFIN,-37.6,54.15,1.0,25,,
1786,SRTRANSFIN,-37.6,54.15,3.0,25,,
1787,SRTRANSFIN,-37.6,54.15,1.0,25,,
1788,SRTRANSFIN,-37.6,54.15,1.0,25,,
1789,SRTRANSFIN,-37.6,54.15,1.0,25,,
1790,SRTRANSFIN,-37.6,54.15,20663.0,258,,
1791,SRTRANSFIN,-37.6,54.15,1.0,258,,
1792,SRTRANSFIN,-37.6,54.15,4.0,258,,
1793,SRTRANSFIN,-37.6,54.15,28.0,258,,
1794,SRTRANSFIN,-37.6,54.15,18.0,258,,
1795,SRTRANSFIN,-37.6,54.15,5.0,258,,
1796,SRTRANSFIN,-37.6,54.15,11.0,258,,
1797,SRTRANSFIN,-37.6,54.15,8.0,258,,
1798,SRTRANSFIN,-37.6,54.15,2.0,258,,
1799,SRTRANSFIN,-37.6,54.15,3.0,258,,
1800,SRTRANSFIN,-37.6,54.15,3.0,258,,
1801,SRTRANSFIN,-37.6,54.15,5.0,258,,
1802,SRTRANSFIN,-37.6,54.15,3.0,258,,
1803,SRTRANSFIN,-37.6,54.15,2.0,258,,
1804,SRTRANSFIN,-37.6,54.15,1.0,258,,
1805,SRTRANSFIN,-37.6,54.15,1.0,258,,
1806,SRTRANSFIN,-37.6,54.15,1.0,258,,
1807,SRTRANSFIN,-37.6,54.15,9.0,258,,
1808,SRTRANSFIN,-37.6,54.15,1.0,258,,
1809,SRTRANSFIN,-37.6,54.15,4.0,258,,
1810,SRTRANSFIN,-37.6,54.15,2.0,258,,
1811,SRTRANSFIN,-37.6,54.15,2.0,258,,
1812,SRTRANSFIN,-37.6,54.15,5.0,258,,
1813,SRTRANSFIN,-37.6,54.15,1.0,258,,
1814,SRTRANSFIN,-37.6,54.15,3.0,258,,
1815,SRTRANSFIN,-37.6,54.15,1.0,258,,
1816,SRTRANSFIN,-37.6,54.15,3.0,258,,
1817,SRTRANSFIN,-37.6,54.15,1.0,258,,
1818,SRTRANSFIN,-37.6,54.15,1.0,258,,
1819,SRTRANSFIN,-37.6,54.15,1.0,258,,
1820,SRTRANSFIN,-37.6,54.15,20663.0,430,,
1821,SRTRANSFIN,-37.6,54.15,1.0,430,,
1822,SRTRANSFIN,-37.6,54.15,4.0,430,,
1823,SRTRANSFIN,-37.6,54.15,28.0,430,,
1824,SRTRANSFIN,-37.6,54.15,18.0,430,,
1825,SRTRANSFIN,-37.6,54.15,5.0,430,,
1826,SRTRANSFIN,-37.6,54.15,11.0,430,,
1827,SRTRANSFIN,-37.6,54.15,8.0,430,,
1828,SRTRANSFIN,-37.6,54.15,2.0,430,,
1829,SRTRANSFIN,-37.6,54.15,3.0,430,,
1830,SRTRANSFIN,-37.6,54.15,3.0,430,,
1831,SRTRANSFIN,-37.6,54.15,5.0,430,,
1832,SRTRANSFIN,-37.6,54.15,3.0,430,,
1833,SRTRANSFIN,-37.6,54.15,2.0,430,,
1834,SRTRANSFIN,-37.6,54.15,1.0,430,,
1835,SRTRANSFIN,-37.6,54.15,1.0,430,,
1836,SRTRANSFIN,-37.6,54.15,1.0,430,,
1837,SRTRANSFIN,-37.6,54.15,9.0,430,,
1838,SRTRANSFIN,-37.6,54.15,1.0,430,,
1839,SRTRANSFIN,-37.6,54.15,4.0,430,,
1840,SRTRANSFIN,-37.6,54.15,2.0,430,,
1841,SRTRANSFIN,-37.6,54.15,2.0,430,,
1842,SRTRANSFIN,-37.6,54.15,5.0,430,,
1843,SRTRANSFIN,-37.6,54.15,1.0,430,,
1844,SRTRANSFIN,-37.6,54.15,3.0,430,,
1845,SRTRANSFIN,-37.6,54.15,1.0,430,,
1846,SRTRANSFIN,-37.6,54.15,3.0,430,,
1847,SRTRANSFIN,-37.6,54.15,1.0,430,,
1848,SRTRANSFIN,-37.6,54.15,1.0,430,,
1849,SRTRANSFIN,-37.6,54.15,1.0,430,,
1850,SRTRANSFIN,-37.6,54.15,20663.0,25,,
1851,SRTRANSFIN,-37.6,54.15,1.0,25,,
1852,SRTRANSFIN,-37.6,54.15,4.0,25,,
1853,SRTRANSFIN,-37.6,54.15,28.0,25,,
1854,SRTRANSFIN,-37.6,54.15,18.0,25,,
1855,SRTRANSFIN,-37.6,54.15,5.0,25,,
1856,SRTRANSFIN,-37.6,54.15,11.0,25,,
1857,SRTRANSFIN,-37.6,54.15,8.0,25,,
1858,SRTRANSFIN,-37.6,54.15,2.0,25,,
1859,SRTRANSFIN,-37.6,54.15,3.0,25,,
1860,SRTRANSFIN,-37.6,54.15,3.0,25,,
1861,SRTRANSFIN,-37.6,54.15,5.0,25,,
1862,SRTRANSFIN,-37.6,54.15,3.0,25,,
1863,SRTRANSFIN,-37.6,54.15,2.0,25,,
1864,SRTRANSFIN,-37.6,54.15,1.0,25,,
1865,SRTRANSFIN,-37.6,54.15,1.0,25,,
1866,SRTRANSFIN,-37.6,54.15,1.0,25,,
1867,SRTRANSFIN,-37.6,54.15,9.0,25,,
1868,SRTRANSFIN,-37.6,54.15,1.0,25,,
1869,SRTRANSFIN,-37.6,54.15,4.0,25,,
1870,SRTRANSFIN,-37.6,54.15,2.0,25,,
1871,SRTRANSFIN,-37.6,54.15,2.0,25,,
1872,SRTRANSFIN,-37.6,54.15,5.0,25,,
1873,SRTRANSFIN,-37.6,54.15,1.0,25,,
1874,SRTRANSFIN,-37.6,54.15,3.0,25,,
1875,SRTRANSFIN,-37.6,54.15,1.0,25,,
1876,SRTRANSFIN,-37.6,54.15,3.0,25,,
1877,SRTRANSFIN,-37.6,54.15,1.0,25,,
1878,SRTRANSFIN,-37.6,54.15,1.0,25,,
1879,SRTRANSFIN,-37.6,54.15,1.0,25,,
1880,SRTRANSFIN,-37.6,54.15,20663.0,40,,
1881,SRTRANSFIN,-37.6,54.15,1.0,40,,
1882,SRTRANSFIN,-37.6,54.15,4.0,40,,
1883,SRTRANSFIN,-37.6,54.15,28.0,40,,
1884,SRTRANSFIN,-37.6,54.15,18.0,40,,
1885,SRTRANSFIN,-37.6,54.15,5.0,40,,
1886,SRTRANSFIN,-37.6,54.15,11.0,40,,
1887,SRTRANSFIN,-37.6,54.15,8.0,40,,
1888,SRTRANSFIN,-37.6,54.15,2.0,40,,
1889,SRTRANSFIN,-37.6,54.15,3.0,40,,
1890,SRTRANSFIN,-37.6,54.15,3.0,40,,
1891,SRTRANSFIN,-37.6,54.15,5.0,40,,
1892,SRTRANSFIN,-37.6,54.15,3.0,40,,
1893,SRTRANSFIN,-37.6,54.15,2.0,40,,
1894,SRTRANSFIN,-37.6,54.15,1.0,40,,
1895,SRTRANSFIN,-37.6,54.15,1.0,40,,
1896,SRTRANSFIN,-37.6,54.15,1.0,40,,
1897,SRTRANSFIN,-37.6,54.15,9.0,40,,
1898,SRTRANSFIN,-37.6,54.15,1.0,40,,
1899,SRTRANSFIN,-37.6,54.15,4.0,40,,
1900,SRTRANSFIN,-37.6,54.15,2.0,40,,
1901,SRTRANSFIN,-37.6,54.15,2.0,40,,
1902,SRTRANSFIN,-37.6,54.15,5.0,40,,
1903,SRTRANSFIN,-37.6,54.15,1.0,40,,
1904,SRTRANSFIN,-37.6,54.15,3.0,40,,
1905,SRTRANSFIN,-37.6,54.15,1.0,40,,
1906,SRTRANSFIN,-37.6,54.15,3.0,40,,
1907,SRTRANSFIN,-37.6,54.15,1.0,40,,
1908,SRTRANSFIN,-37.6,54.15,1.0,40,,
1909,SRTRANSFIN,-37.6,54.15,1.0,40,,
1910,SRTRANSFIN,-37.6,54.15,20663.0,125,,
1911,SRTRANSFIN,-37.6,54.15,1.0,125,,
1912,SRTRANSFIN,-37.6,54.15,4.0,125,,
1913,SRTRANSFIN,-37.6,54.15,28.0,125,,
1914,SRTRANSFIN,-37.6,54.15,18.0,125,,
1915,SRTRANSFIN,-37.6,54.15,5.0,125,,
1916,SRTRANSFIN,-37.6,54.15,11.0,125,,
1917,SRTRANSFIN,-37.6,54.15,8.0,125,,
1918,SRTRANSFIN,-37.6,54.15,2.0,125,,
1919,SRTRANSFIN,-37.6,54.15,3.0,125,,
1920,SRTRANSFIN,-37.6,54.15,3.0,125,,
1921,SRTRANSFIN,-37.6,54.15,5.0,125,,
1922,SRTRANSFIN,-37.6,54.15,3.0,125,,
1923,SRTRANSFIN,-37.6,54.15,2.0,125,,
1924,SRTRANSFIN,-37.6,54.15,1.0,125,,
1925,SRTRANSFIN,-37.6,54.15,1.0,125,,
1926,SRTRANSFIN,-37.6,54.15,1.0,125,,
1927,SRTRANSFIN,-37.6,54.15,9.0,125,,
1928,SRTRANSFIN,-37.6,54.15,1.0,125,,
1929,SRTRANSFIN,-37.6,54.15,4.0,125,,
1930,SRTRANSFIN,-37.6,54.15,2.0,125,,
1931,SRTRANSFIN,-37.6,54.15,2.0,125,,
1932,SRTRANSFIN,-37.6,54.15,5.0,125,,
1933,SRTRANSFIN,-37.6,54.15,1.0,125,,
1934,SRTRANSFIN,-37.6,54.15,3.0,125,,
1935,SRTRANSFIN,-37.6,54.15,1.0,125,,
1936,SRTRANSFIN,-37.6,54.15,3.0,125,,
1937,SRTRANSFIN,-37.6,54.15,1.0,125,,
1938,SRTRANSFIN,-37.6,54.15,1.0,125,,
1939,SRTRANSFIN,-37.6,54.15,1.0,125,,
1940,SRTRANSFIN,-37.6,54.15,20663.0,110,,
1941,SRTRANSFIN,-37.6,54.15,1.0,110,,
1942,SRTRANSFIN,-37.6,54.15,4.0,110,,
1943,SRTRANSFIN,-37.6,54.15,28.0,110,,
1944,SRTRANSFIN,-37.6,54.15,18.0,110,,
1945,SRTRANSFIN,-37.6,54.15,5.0,110,,
1946,SRTRANSFIN,-37.6,54.15,11.0,110,,
1947,SRTRANSFIN,-37.6,54.15,8.0,110,,
1948,SRTRANSFIN,-37.6,54.15,2.0,110,,
1949,SRTRANSFIN,-37.6,54.15,3.0,110,,
1950,SRTRANSFIN,-37.6,54.15,3.0,110,,
1951,SRTRANSFIN,-37.6,54.15,5.0,110,,
1952,SRTRANSFIN,-37.6,54.15,3.0,110,,
1953,SRTRANSFIN,-37.6,54.15,2.0,110,,
1954,SRTRANSFIN,-37.6,54.15,1.0,110,,
1955,SRTRANSFIN,-37.6,54.15,1.0,110,,
1956,SRTRANSFIN,-37.6,54.15,1.0,110,,
1957,SRTRANSFIN,-37.6,54.15,9.0,110,,
1958,SRTRANSFIN,-37.6,54.15,1.0,110,,
1959,SRTRANSFIN,-37.6,54.15,4.0,110,,
1960,SRTRANSFIN,-37.6,54.15,2.0,110,,
1961,SRTRANSFIN,-37.6,54.15,2.0,110,,
1962,SRTRANSFIN,-37.6,54.15,5.0,110,,
1963,SRTRANSFIN,-37.6,54.15,1.0,110,,
1964,SRTRANSFIN,-37.6,54.15,3.0,110,,
1965,SRTRANSFIN,-37.6,54.15,1.0,110,,
1966,SRTRANSFIN,-37.6,54.15,3.0,110,,
1967,SRTRANSFIN,-37.6,54.15,1.0,110,,
1968,SRTRANSFIN,-37.6,54.15,1.0,110,,
1969,SRTRANSFIN,-37.6,54.15,1.0,110,,
1970,SRTRANSFIN,-37.6,54.15,20663.0,35,,
1971,SRTRANSFIN,-37.6,54.15,1.0,35,,
1972,SRTRANSFIN,-37.6,54.15,4.0,35,,
1973,SRTRANSFIN,-37.6,54.15,28.0,35,,
1974,SRTRANSFIN,-37.6,54.15,18.0,35,,
1975,SRTRANSFIN,-37.6,54.15,5.0,35,,
1976,SRTRANSFIN,-37.6,54.15,11.0,35,,
1977,SRTRANSFIN,-37.6,54.15,8.0,35,,
1978,SRTRANSFIN,-37.6,54.15,2.0,35,,
1979,SRTRANSFIN,-37.6,54.15,3.0,35,,
1980,SRTRANSFIN,-37.6,54.15,3.0,35,,
1981,SRTRANSFIN,-37.6,54.15,5.0,35,,
1982,SRTRANSFIN,-37.6,54.15,3.0,35,,
1983,SRTRANSFIN,-37.6,54.15,2.0,35,,
1984,SRTRANSFIN,-37.6,54.15,1.0,35,,
1985,SRTRANSFIN,-37.6,54.15,1.0,35,,
1986,SRTRANSFIN,-37.6,54.15,1.0,35,,
1987,SRTRANSFIN,-37.6,54.15,9.0,35,,
1988,SRTRANSFIN,-37.6,54.15,1.0,35,,
1989,SRTRANSFIN,-37.6,54.15,4.0,35,,
1990,SRTRANSFIN,-37.6,54.15,2.0,35,,
1991,SRTRANSFIN,-37.6,54.15,2.0,35,,
1992,SRTRANSFIN,-37.6,54.15,5.0,35,,
1993,SRTRANSFIN,-37.6,54.15,1.0,35,,
1994,SRTRANSFIN,-37.6,54.15,3.0,35,,
1995,SRTRANSFIN,-37.6,54.15,1.0,35,,
1996,SRTRANSFIN,-37.6,54.15,3.0,35,,
1997,SRTRANSFIN,-37.6,54.15,1.0,35,,
1998,SRTRANSFIN,-37.6,54.15,1.0,35,,
1999,SRTRANSFIN,-37.6,54.15,1.0,35,,
2000,SRTRANSFIN,-37.6,54.15,20663.0,34,,
2001,SRTRANSFIN,-37.6,54.15,1.0,34,,
2002,SRTRANSFIN,-37.6,54.15,4.0,34,,
2003,SRTRANSFIN,-37.6,54.15,28.0,34,,
2004,SRTRANSFIN,-37.6,54.15,18.0,34,,
2005,SRTRANSFIN,-37.6,54.15,5.0,34,,
2006,SRTRANSFIN,-37.6,54.15,11.0,34,,
2007,SRTRANSFIN,-37.6,54.15,8.0,34,,
2008,SRTRANSFIN,-37.6,54.15,2.0,34,,
2009,SRTRANSFIN,-37.6,54.15,3.0,34,,
2010,SRTRANSFIN,-37.6,54.15,3.0,34,,
2011,SRTRANSFIN,-37.6,54.15,5.0,34,,
2012,SRTRANSFIN,-37.6,54.15,3.0,34,,
2013,SRTRANSFIN,-37.6,54.15,2.0,34,,
2014,SRTRANSFIN,-37.6,54.15,1.0,34,,
2015,SRTRANSFIN,-37.6,54.15,1.0,34,,
2016,SRTRANSFIN,-37.6,54.15,1.0,34,,
2017,SRTRANSFIN,-37.6,54.15,9.0,34,,
2018,SRTRANSFIN,-37.6,54.15,1.0,34,,
2019,SRTRANSFIN,-37.6,54.15,4.0,34,,
2020,SRTRANSFIN,-37.6,54.15,2.0,34,,
2021,SRTRANSFIN,-37.6,54.15,2.0,34,,
2022,SRTRANSFIN,-37.6,54.15,5.0,34,,
2023,SRTRANSFIN,-37.6,54.15,1.0,34,,
2024,SRTRANSFIN,-37.6,54.15,3.0,34,,
2025,SRTRANSFIN,-37.6,54.15,1.0,34,,
2026,SRTRANSFIN,-37.6,54.15,3.0,34,,
2027,SRTRANSFIN,-37.6,54.15,1.0,34,,
2028,SRTRANSFIN,-37.6,54.15,1.0,34,,
2029,SRTRANSFIN,-37.6,54.15,1.0,34,,
2030,SRTRANSFIN,-37.6,54.15,20663.0,25,,
2031,SRTRANSFIN,-37.6,54.15,1.0,25,,
2032,SRTRANSFIN,-37.6,54.15,4.0,25,,
2033,SRTRANSFIN,-37.6,54.15,28.0,25,,
2034,SRTRANSFIN,-37.6,54.15,18.0,25,,
2035,SRTRANSFIN,-37.6,54.15,5.0,25,,
2036,SRTRANSFIN,-37.6,54.15,11.0,25,,
2037,SRTRANSFIN,-37.6,54.15,8.0,25,,
2038,SRTRANSFIN,-37.6,54.15,2.0,25,,
2039,SRTRANSFIN,-37.6,54.15,3.0,25,,
2040,SRTRANSFIN,-37.6,54.15,3.0,25,,
2041,SRTRANSFIN,-37.6,54.15,5.0,25,,
2042,SRTRANSFIN,-37.6,54.15,3.0,25,,
2043,SRTRANSFIN,-37.6,54.15,2.0,25,,
2044,SRTRANSFIN,-37.6,54.15,1.0,25,,
2045,SRTRANSFIN,-37.6,54.15,1.0,25,,
2046,SRTRANSFIN,-37.6,54.15,1.0,25,,
2047,SRTRANSFIN,-37.6,54.15,9.0,25,,
2048,SRTRANSFIN,-37.6,54.15,1.0,25,,
2049,SRTRANSFIN,-37.6,54.15,4.0,25,,
2050,SRTRANSFIN,-37.6,54.15,2.0,25,,
2051,SRTRANSFIN,-37.6,54.15,2.0,25,,
2052,SRTRANSFIN,-37.6,54.15,5.0,25,,
2053,SRTRANSFIN,-37.6,54.15,1.0,25,,
2054,SRTRANSFIN,-37.6,54.15,3.0,25,,
2055,SRTRANSFIN,-37.6,54.15,1.0,25,,
2056,SRTRANSFIN,-37.6,54.15,3.0,25,,
2057,SRTRANSFIN,-37.6,54.15,1.0,25,,
2058,SRTRANSFIN,-37.6,54.15,1.0,25,,
2059,SRTRANSFIN,-37.6,54.15,1.0,25,,
2060,SRTRANSFIN,-37.6,54.15,20663.0,25,,
2061,SRTRANSFIN,-37.6,54.15,1.0,25,,
2062,SRTRANSFIN,-37.6,54.15,4.0,25,,
2063,SRTRANSFIN,-37.6,54.15,28.0,25,,
2064,SRTRANSFIN,-37.6,54.15,18.0,25,,
2065,SRTRANSFIN,-37.6,54.15,5.0,25,,
2066,SRTRANSFIN,-37.6,54.15,11.0,25,,
2067,SRTRANSFIN,-37.6,54.15,8.0,25,,
2068,SRTRANSFIN,-37.6,54.15,2.0,25,,
2069,SRTRANSFIN,-37.6,54.15,3.0,25,,
2070,SRTRANSFIN,-37.6,54.15,3.0,25,,
2071,SRTRANSFIN,-37.6,54.15,5.0,25,,
2072,SRTRANSFIN,-37.6,54.15,3.0,25,,
2073,SRTRANSFIN,-37.6,54.15,2.0,25,,
2074,SRTRANSFIN,-37.6,54.15,1.0,25,,
2075,SRTRANSFIN,-37.6,54.15,1.0,25,,
2076,SRTRANSFIN,-37.6,54.15,1.0,25,,
2077,SRTRANSFIN,-37.6,54.15,9.0,25,,
2078,SRTRANSFIN,-37.6,54.15,1.0,25,,
2079,SRTRANSFIN,-37.6,54.15,4.0,25,,
2080,SRTRANSFIN,-37.6,54.15,2.0,25,,
2081,SRTRANSFIN,-37.6,54.15,2.0,25,,
2082,SRTRANSFIN,-37.6,54.15,5.0,25,,
2083,SRTRANSFIN,-37.6,54.15,1.0,25,,
2084,SRTRANSFIN,-37.6,54.15,3.0,25,,
2085,SRTRANSFIN,-37.6,54.15,1.0,25,,
2086,SRTRANSFIN,-37.6,54.15,3.0,25,,
2087,SRTRANSFIN,-37.6,54.15,1.0,25,,
2088,SRTRANSFIN,-37.6,54.15,1.0,25,,
2089,SRTRANSFIN,-37.6,54.15,1.0,25,,
2090,SRTRANSFIN,-37.6,54.15,20663.0,25,,
2091,SRTRANSFIN,-37.6,54.15,1.0,25,,
2092,SRTRANSFIN,-37.6,54.15,4.0,25,,
2093,SRTRANSFIN,-37.6,54.15,28.0,25,,
2094,SRTRANSFIN,-37.6,54.15,18.0,25,,
2095,SRTRANSFIN,-37.6,54.15,5.0,25,,
2096,SRTRANSFIN,-37.6,54.15,11.0,25,,
2097,SRTRANSFIN,-37.6,54.15,8.0,25,,
2098,SRTRANSFIN,-37.6,54.15,2.0,25,,
2099,SRTRANSFIN,-37.6,54.15,3.0,25,,
2100,SRTRANSFIN,-37.6,54.15,3.0,25,,
2101,SRTRANSFIN,-37.6,54.15,5.0,25,,
2102,SRTRANSFIN,-37.6,54.15,3.0,25,,
2103,SRTRANSFIN,-37.6,54.15,2.0,25,,
2104,SRTRANSFIN,-37.6,54.15,1.0,25,,
2105,SRTRANSFIN,-37.6,54.15,1.0,25,,
2106,SRTRANSFIN,-37.6,54.15,1.0,25,,
2107,SRTRANSFIN,-37.6,54.15,9.0,25,,
2108,SRTRANSFIN,-37.6,54.15,1.0,25,,
2109,SRTRANSFIN,-37.6,54.15,4.0,25,,
2110,SRTRANSFIN,-37.6,54.15,2.0,25,,
2111,SRTRANSFIN,-37.6,54.15,2.0,25,,
2112,SRTRANSFIN,-37.6,54.15,5.0,25,,
2113,SRTRANSFIN,-37.6,54.15,1.0,25,,
2114,SRTRANSFIN,-37.6,54.15,3.0,25,,
2115,SRTRANSFIN,-37.6,54.15,1.0,25,,
2116,SRTRANSFIN,-37.6,54.15,3.0,25,,
2117,SRTRANSFIN,-37.6,54.15,1.0,25,,
2118,SRTRANSFIN,-37.6,54.15,1.0,25,,
2119,SRTRANSFIN,-37.6,54.15,1.0,25,,
2120,SRTRANSFIN,-37.6,54.15,20663.0,113,,
2121,SRTRANSFIN,-37.6,54.15,1.0,113,,
2122,SRTRANSFIN,-37.6,54.15,4.0,113,,
2123,SRTRANSFIN,-37.6,54.15,28.0,113,,
2124,SRTRANSFIN,-37.6,54.15,18.0,113,,
2125,SRTRANSFIN,-37.6,54.15,5.0,113,,
2126,SRTRANSFIN,-37.6,54.15,11.0,113,,
2127,SRTRANSFIN,-37.6,54.15,8.0,113,,
2128,SRTRANSFIN,-37.6,54.15,2.0,113,,
2129,SRTRANSFIN,-37.6,54.15,3.0,113,,
2130,SRTRANSFIN,-37.6,54.15,3.0,113,,
2131,SRTRANSFIN,-37.6,54.15,5.0,113,,
2132,SRTRANSFIN,-37.6,54.15,3.0,113,,
2133,SRTRANSFIN,-37.6,54.15,2.0,113,,
2134,SRTRANSFIN,-37.6,54.15,1.0,113,,
2135,SRTRANSFIN,-37.6,54.15,1.0,113,,
2136,SRTRANSFIN,-37.6,54.15,1.0,113,,
2137,SRTRANSFIN,-37.6,54.15,9.0,113,,
2138,SRTRANSFIN,-37.6,54.15,1.0,113,,
2139,SRTRANSFIN,-37.6,54.15,4.0,113,,
2140,SRTRANSFIN,-37.6,54.15,2.0,113,,
2141,SRTRANSFIN,-37.6,54.15,2.0,113,,
2142,SRTRANSFIN,-37.6,54.15,5.0,113,,
2143,SRTRANSFIN,-37.6,54.15,1.0,113,,
2144,SRTRANSFIN,-37.6,54.15,3.0,113,,
2145,SRTRANSFIN,-37.6,54.15,1.0,113,,
2146,SRTRANSFIN,-37.6,54.15,3.0,113,,
2147,SRTRANSFIN,-37.6,54.15,1.0,113,,
2148,SRTRANSFIN,-37.6,54.15,1.0,113,,
2149,SRTRANSFIN,-37.6,54.15,1.0,113,,
2150,SRTRANSFIN,-37.6,54.15,20663.0,25,,
2151,SRTRANSFIN,-37.6,54.15,1.0,25,,
2152,SRTRANSFIN,-37.6,54.15,4.0,25,,
2153,SRTRANSFIN,-37.6,54.15,28.0,25,,
2154,SRTRANSFIN,-37.6,54.15,18.0,25,,
2155,SRTRANSFIN,-37.6,54.15,5.0,25,,
2156,SRTRANSFIN,-37.6,54.15,11.0,25,,
2157,SRTRANSFIN,-37.6,54.15,8.0,25,,
2158,SRTRANSFIN,-37.6,54.15,2.0,25,,
2159,SRTRANSFIN,-37.6,54.15,3.0,25,,
2160,SRTRANSFIN,-37.6,54.15,3.0,25,,
2161,SRTRANSFIN,-37.6,54.15,5.0,25,,
2162,SRTRANSFIN,-37.6,54.15,3.0,25,,
2163,SRTRANSFIN,-37.6,54.15,2.0,25,,
2164,SRTRANSFIN,-37.6,54.15,1.0,25,,
2165,SRTRANSFIN,-37.6,54.15,1.0,25,,
2166,SRTRANSFIN,-37.6,54.15,1.0,25,,
2167,SRTRANSFIN,-37.6,54.15,9.0,25,,
2168,SRTRANSFIN,-37.6,54.15,1.0,25,,
2169,SRTRANSFIN,-37.6,54.15,4.0,25,,
2170,SRTRANSFIN,-37.6,54.15,2.0,25,,
2171,SRTRANSFIN,-37.6,54.15,2.0,25,,
2172,SRTRANSFIN,-37.6,54.15,5.0,25,,
2173,SRTRANSFIN,-37.6,54.15,1.0,25,,
2174,SRTRANSFIN,-37.6,54.15,3.0,25,,
2175,SRTRANSFIN,-37.6,54.15,1.0,25,,
2176,SRTRANSFIN,-37.6,54.15,3.0,25,,
2177,SRTRANSFIN,-37.6,54.15,1.0,25,,
2178,SRTRANSFIN,-37.6,54.15,1.0,25,,
2179,SRTRANSFIN,-37.6,54.15,1.0,25,,
2180,SRTRANSFIN,-37.6,54.15,20663.0,63,,
2181,SRTRANSFIN,-37.6,54.15,1.0,63,,
2182,SRTRANSFIN,-37.6,54.15,4.0,63,,
2183,SRTRANSFIN,-37.6,54.15,28.0,63,,
2184,SRTRANSFIN,-37.6,54.15,18.0,63,,
2185,SRTRANSFIN,-37.6,54.15,5.0,63,,
2186,SRTRANSFIN,-37.6,54.15,11.0,63,,
2187,SRTRANSFIN,-37.6,54.15,8.0,63,,
2188,SRTRANSFIN,-37.6,54.15,2.0,63,,
2189,SRTRANSFIN,-37.6,54.15,3.0,63,,
2190,SRTRANSFIN,-37.6,54.15,3.0,63,,
2191,SRTRANSFIN,-37.6,54.15,5.0,63,,
2192,SRTRANSFIN,-37.6,54.15,3.0,63,,
2193,SRTRANSFIN,-37.6,54.15,2.0,63,,
2194,SRTRANSFIN,-37.6,54.15,1.0,63,,
2195,SRTRANSFIN,-37.6,54.15,1.0,63,,
2196,SRTRANSFIN,-37.6,54.15,1.0,63,,
2197,SRTRANSFIN,-37.6,54.15,9.0,63,,
2198,SRTRANSFIN,-37.6,54.15,1.0,63,,
2199,SRTRANSFIN,-37.6,54.15,4.0,63,,
2200,SRTRANSFIN,-37.6,54.15,2.0,63,,
2201,SRTRANSFIN,-37.6,54.15,2.0,63,,
2202,SRTRANSFIN,-37.6,54.15,5.0,63,,
2203,SRTRANSFIN,-37.6,54.15,1.0,63,,
2204,SRTRANSFIN,-37.6,54.15,3.0,63,,
2205,SRTRANSFIN,-37.6,54.15,1.0,63,,
2206,SRTRANSFIN,-37.6,54.15,3.0,63,,
2207,SRTRANSFIN,-37.6,54.15,1.0,63,,
2208,SRTRANSFIN,-37.6,54.15,1.0,63,,
2209,SRTRANSFIN,-37.6,54.15,1.0,63,,
2210,SRTRANSFIN,-37.6,54.15,20663.0,50,,
2211,SRTRANSFIN,-37.6,54.15,1.0,50,,
2212,SRTRANSFIN,-37.6,54.15,4.0,50,,
2213,SRTRANSFIN,-37.6,54.15,28.0,50,,
2214,SRTRANSFIN,-37.6,54.15,18.0,50,,
2215,SRTRANSFIN,-37.6,54.15,5.0,50,,
2216,SRTRANSFIN,-37.6,54.15,11.0,50,,
2217,SRTRANSFIN,-37.6,54.15,8.0,50,,
2218,SRTRANSFIN,-37.6,54.15,2.0,50,,
2219,SRTRANSFIN,-37.6,54.15,3.0,50,,
2220,SRTRANSFIN,-37.6,54.15,3.0,50,,
2221,SRTRANSFIN,-37.6,54.15,5.0,50,,
2222,SRTRANSFIN,-37.6,54.15,3.0,50,,
2223,SRTRANSFIN,-37.6,54.15,2.0,50,,
2224,SRTRANSFIN,-37.6,54.15,1.0,50,,
2225,SRTRANSFIN,-37.6,54.15,1.0,50,,
2226,SRTRANSFIN,-37.6,54.15,1.0,50,,
2227,SRTRANSFIN,-37.6,54.15,9.0,50,,
2228,SRTRANSFIN,-37.6,54.15,1.0,50,,
2229,SRTRANSFIN,-37.6,54.15,4.0,50,,
2230,SRTRANSFIN,-37.6,54.15,2.0,50,,
2231,SRTRANSFIN,-37.6,54.15,2.0,50,,
2232,SRTRANSFIN,-37.6,54.15,5.0,50,,
2233,SRTRANSFIN,-37.6,54.15,1.0,50,,
2234,SRTRANSFIN,-37.6,54.15,3.0,50,,
2235,SRTRANSFIN,-37.6,54.15,1.0,50,,
2236,SRTRANSFIN,-37.6,54.15,3.0,50,,
2237,SRTRANSFIN,-37.6,54.15,1.0,50,,
2238,SRTRANSFIN,-37.6,54.15,1.0,50,,
2239,SRTRANSFIN,-37.6,54.15,1.0,50,,
2240,SRTRANSFIN,-37.6,54.15,20663.0,25,,
2241,SRTRANSFIN,-37.6,54.15,1.0,25,,
2242,SRTRANSFIN,-37.6,54.15,4.0,25,,
2243,SRTRANSFIN,-37.6,54.15,28.0,25,,
2244,SRTRANSFIN,-37.6,54.15,18.0,25,,
2245,SRTRANSFIN,-37.6,54.15,5.0,25,,
2246,SRTRANSFIN,-37.6,54.15,11.0,25,,
2247,SRTRANSFIN,-37.6,54.15,8.0,25,,
2248,SRTRANSFIN,-37.6,54.15,2.0,25,,
2249,SRTRANSFIN,-37.6,54.15,3.0,25,,
2250,SRTRANSFIN,-37.6,54.15,3.0,25,,
2251,SRTRANSFIN,-37.6,54.15,5.0,25,,
2252,SRTRANSFIN,-37.6,54.15,3.0,25,,
2253,SRTRANSFIN,-37.6,54.15,2.0,25,,
2254,SRTRANSFIN,-37.6,54.15,1.0,25,,
2255,SRTRANSFIN,-37.6,54.15,1.0,25,,
2256,SRTRANSFIN,-37.6,54.15,1.0,25,,
2257,SRTRANSFIN,-37.6,54.15,9.0,25,,
2258,SRTRANSFIN,-37.6,54.15,1.0,25,,
2259,SRTRANSFIN,-37.6,54.15,4.0,25,,
2260,SRTRANSFIN,-37.6,54.15,2.0,25,,
2261,SRTRANSFIN,-37.6,54.15,2.0,25,,
2262,SRTRANSFIN,-37.6,54.15,5.0,25,,
2263,SRTRANSFIN,-37.6,54.15,1.0,25,,
2264,SRTRANSFIN,-37.6,54.15,3.0,25,,
2265,SRTRANSFIN,-37.6,54.15,1.0,25,,
2266,SRTRANSFIN,-37.6,54.15,3.0,25,,
2267,SRTRANSFIN,-37.6,54.15,1.0,25,,
2268,SRTRANSFIN,-37.6,54.15,1.0,25,,
2269,SRTRANSFIN,-37.6,54.15,1.0,25,,
2270,SRTRANSFIN,-37.6,54.15,20663.0,201,,
2271,SRTRANSFIN,-37.6,54.15,1.0,201,,
2272,SRTRANSFIN,-37.6,54.15,4.0,201,,
2273,SRTRANSFIN,-37.6,54.15,28.0,201,,
2274,SRTRANSFIN,-37.6,54.15,18.0,201,,
2275,SRTRANSFIN,-37.6,54.15,5.0,201,,
2276,SRTRANSFIN,-37.6,54.15,11.0,201,,
2277,SRTRANSFIN,-37.6,54.15,8.0,201,,
2278,SRTRANSFIN,-37.6,54.15,2.0,201,,
2279,SRTRANSFIN,-37.6,54.15,3.0,201,,
2280,SRTRANSFIN,-37.6,54.15,3.0,201,,
2281,SRTRANSFIN,-37.6,54.15,5.0,201,,
2282,SRTRANSFIN,-37.6,54.15,3.0,201,,
2283,SRTRANSFIN,-37.6,54.15,2.0,201,,
2284,SRTRANSFIN,-37.6,54.15,1.0,201,,
2285,SRTRANSFIN,-37.6,54.15,1.0,201,,
2286,SRTRANSFIN,-37.6,54.15,1.0,201,,
2287,SRTRANSFIN,-37.6,54.15,9.0,201,,
2288,SRTRANSFIN,-37.6,54.15,1.0,201,,
2289,SRTRANSFIN,-37.6,54.15,4.0,201,,
2290,SRTRANSFIN,-37.6,54.15,2.0,201,,
2291,SRTRANSFIN,-37.6,54.15,2.0,201,,
2292,SRTRANSFIN,-37.6,54.15,5.0,201,,
2293,SRTRANSFIN,-37.6,54.15,1.0,201,,
2294,SRTRANSFIN,-37.6,54.15,3.0,201,,
2295,SRTRANSFIN,-37.6,54.15,1.0,201,,
2296,SRTRANSFIN,-37.6,54.15,3.0,201,,
2297,SRTRANSFIN,-37.6,54.15,1.0,201,,
2298,SRTRANSFIN,-37.6,54.15,1.0,201,,
2299,SRTRANSFIN,-37.6,54.15,1.0,201,,
2300,SRTRANSFIN,-37.6,54.15,20663.0,25,,
2301,SRTRANSFIN,-37.6,54.15,1.0,25,,
2302,SRTRANSFIN,-37.6,54.15,4.0,25,,
2303,SRTRANSFIN,-37.6,54.15,28.0,25,,
2304,SRTRANSFIN,-37.6,54.15,18.0,25,,
2305,SRTRANSFIN,-37.6,54.15,5.0,25,,
2306,SRTRANSFIN,-37.6,54.15,11.0,25,,
2307,SRTRANSFIN,-37.6,54.15,8.0,25,,
2308,SRTRANSFIN,-37.6,54.15,2.0,25,,
2309,SRTRANSFIN,-37.6,54.15,3.0,25,,
2310,SRTRANSFIN,-37.6,54.15,3.0,25,,
2311,SRTRANSFIN,-37.6,54.15,5.0,25,,
2312,SRTRANSFIN,-37.6,54.15,3.0,25,,
2313,SRTRANSFIN,-37.6,54.15,2.0,25,,
2314,SRTRANSFIN,-37.6,54.15,1.0,25,,
2315,SRTRANSFIN,-37.6,54.15,1.0,25,,
2316,SRTRANSFIN,-37.6,54.15,1.0,25,,
2317,SRTRANSFIN,-37.6,54.15,9.0,25,,
2318,SRTRANSFIN,-37.6,54.15,1.0,25,,
2319,SRTRANSFIN,-37.6,54.15,4.0,25,,
2320,SRTRANSFIN,-37.6,54.15,2.0,25,,
2321,SRTRANSFIN,-37.6,54.15,2.0,25,,
2322,SRTRANSFIN,-37.6,54.15,5.0,25,,
2323,SRTRANSFIN,-37.6,54.15,1.0,25,,
2324,SRTRANSFIN,-37.6,54.15,3.0,25,,
2325,SRTRANSFIN,-37.6,54.15,1.0,25,,
2326,SRTRANSFIN,-37.6,54.15,3.0,25,,
2327,SRTRANSFIN,-37.6,54.15,1.0,25,,
2328,SRTRANSFIN,-37.6,54.15,1.0,25,,
2329,SRTRANSFIN,-37.6,54.15,1.0,25,,
2330,SRTRANSFIN,-37.6,54.15,20663.0,50,,
2331,SRTRANSFIN,-37.6,54.15,1.0,50,,
2332,SRTRANSFIN,-37.6,54.15,4.0,50,,
2333,SRTRANSFIN,-37.6,54.15,28.0,50,,
2334,SRTRANSFIN,-37.6,54.15,18.0,50,,
2335,SRTRANSFIN,-37.6,54.15,5.0,50,,
2336,SRTRANSFIN,-37.6,54.15,11.0,50,,
2337,SRTRANSFIN,-37.6,54.15,8.0,50,,
2338,SRTRANSFIN,-37.6,54.15,2.0,50,,
2339,SRTRANSFIN,-37.6,54.15,3.0,50,,
2340,SRTRANSFIN,-37.6,54.15,3.0,50,,
2341,SRTRANSFIN,-37.6,54.15,5.0,50,,
2342,SRTRANSFIN,-37.6,54.15,3.0,50,,
2343,SRTRANSFIN,-37.6,54.15,2.0,50,,
2344,SRTRANSFIN,-37.6,54.15,1.0,50,,
2345,SRTRANSFIN,-37.6,54.15,1.0,50,,
2346,SRTRANSFIN,-37.6,54.15,1.0,50,,
2347,SRTRANSFIN,-37.6,54.15,9.0,50,,
2348,SRTRANSFIN,-37.6,54.15,1.0,50,,
2349,SRTRANSFIN,-37.6,54.15,4.0,50,,
2350,SRTRANSFIN,-37.6,54.15,2.0,50,,
2351,SRTRANSFIN,-37.6,54.15,2.0,50,,
2352,SRTRANSFIN,-37.6,54.15,5.0,50,,
2353,SRTRANSFIN,-37.6,54.15,1.0,50,,
2354,SRTRANSFIN,-37.6,54.15,3.0,50,,
2355,SRTRANSFIN,-37.6,54.15,1.0,50,,
2356,SRTRANSFIN,-37.6,54.15,3.0,50,,
2357,SRTRANSFIN,-37.6,54.15,1.0,50,,
2358,SRTRANSFIN,-37.6,54.15,1.0,50,,
2359,SRTRANSFIN,-37.6,54.15,1.0,50,,
2360,SRTRANSFIN,-37.6,54.15,20663.0,25,,
2361,SRTRANSFIN,-37.6,54.15,1.0,25,,
2362,SRTRANSFIN,-37.6,54.15,4.0,25,,
2363,SRTRANSFIN,-37.6,54.15,28.0,25,,
2364,SRTRANSFIN,-37.6,54.15,18.0,25,,
2365,SRTRANSFIN,-37.6,54.15,5.0,25,,
2366,SRTRANSFIN,-37.6,54.15,11.0,25,,
2367,SRTRANSFIN,-37.6,54.15,8.0,25,,
2368,SRTRANSFIN,-37.6,54.15,2.0,25,,
2369,SRTRANSFIN,-37.6,54.15,3.0,25,,
2370,SRTRANSFIN,-37.6,54.15,3.0,25,,
2371,SRTRANSFIN,-37.6,54.15,5.0,25,,
2372,SRTRANSFIN,-37.6,54.15,3.0,25,,
2373,SRTRANSFIN,-37.6,54.15,2.0,25,,
2374,SRTRANSFIN,-37.6,54.15,1.0,25,,
2375,SRTRANSFIN,-37.6,54.15,1.0,25,,
2376,SRTRANSFIN,-37.6,54.15,1.0,25,,
2377,SRTRANSFIN,-37.6,54.15,9.0,25,,
2378,SRTRANSFIN,-37.6,54.15,1.0,25,,
2379,SRTRANSFIN,-37.6,54.15,4.0,25,,
2380,SRTRANSFIN,-37.6,54.15,2.0,25,,
2381,SRTRANSFIN,-37.6,54.15,2.0,25,,
2382,SRTRANSFIN,-37.6,54.15,5.0,25,,
2383,SRTRANSFIN,-37.6,54.15,1.0,25,,
2384,SRTRANSFIN,-37.6,54.15,3.0,25,,
2385,SRTRANSFIN,-37.6,54.15,1.0,25,,
2386,SRTRANSFIN,-37.6,54.15,3.0,25,,
2387,SRTRANSFIN,-37.6,54.15,1.0,25,,
2388,SRTRANSFIN,-37.6,54.15,1.0,25,,
2389,SRTRANSFIN,-37.6,54.15,1.0,25,,
2390,SRTRANSFIN,-37.6,54.15,20663.0,25,,
2391,SRTRANSFIN,-37.6,54.15,1.0,25,,
2392,SRTRANSFIN,-37.6,54.15,4.0,25,,
2393,SRTRANSFIN,-37.6,54.15,28.0,25,,
2394,SRTRANSFIN,-37.6,54.15,18.0,25,,
2395,SRTRANSFIN,-37.6,54.15,5.0,25,,
2396,SRTRANSFIN,-37.6,54.15,11.0,25,,
2397,SRTRANSFIN,-37.6,54.15,8.0,25,,
2398,SRTRANSFIN,-37.6,54.15,2.0,25,,
2399,SRTRANSFIN,-37.6,54.15,3.0,25,,
2400,SRTRANSFIN,-37.6,54.15,3.0,25,,
2401,SRTRANSFIN,-37.6,54.15,5.0,25,,
2402,SRTRANSFIN,-37.6,54.15,3.0,25,,
2403,SRTRANSFIN,-37.6,54.15,2.0,25,,
2404,SRTRANSFIN,-37.6,54.15,1.0,25,,
2405,SRTRANSFIN,-37.6,54.15,1.0,25,,
2406,SRTRANSFIN,-37.6,54.15,1.0,25,,
2407,SRTRANSFIN,-37.6,54.15,9.0,25,,
2408,SRTRANSFIN,-37.6,54.15,1.0,25,,
2409,SRTRANSFIN,-37.6,54.15,4.0,25,,
2410,SRTRANSFIN,-37.6,54.15,2.0,25,,
2411,SRTRANSFIN,-37.6,54.15,2.0,25,,
2412,SRTRANSFIN,-37.6,54.15,5.0,25,,
2413,SRTRANSFIN,-37.6,54.15,1.0,25,,
2414,SRTRANSFIN,-37.6,54.15,3.0,25,,
2415,SRTRANSFIN,-37.6,54.15,1.0,25,,
2416,SRTRANSFIN,-37.6,54.15,3.0,25,,
2417,SRTRANSFIN,-37.6,54.15,1.0,25,,
2418,SRTRANSFIN,-37.6,54.15,1.0,25,,
2419,SRTRANSFIN,-37.6,54.15,1.0,25,,
2420,SRTRANSFIN,-37.6,54.15,20663.0,25,,
2421,SRTRANSFIN,-37.6,54.15,1.0,25,,
2422,SRTRANSFIN,-37.6,54.15,4.0,25,,
2423,SRTRANSFIN,-37.6,54.15,28.0,25,,
2424,SRTRANSFIN,-37.6,54.15,18.0,25,,
2425,SRTRANSFIN,-37.6,54.15,5.0,25,,
2426,SRTRANSFIN,-37.6,54.15,11.0,25,,
2427,SRTRANSFIN,-37.6,54.15,8.0,25,,
2428,SRTRANSFIN,-37.6,54.15,2.0,25,,
2429,SRTRANSFIN,-37.6,54.15,3.0,25,,
2430,SRTRANSFIN,-37.6,54.15,3.0,25,,
2431,SRTRANSFIN,-37.6,54.15,5.0,25,,
2432,SRTRANSFIN,-37.6,54.15,3.0,25,,
2433,SRTRANSFIN,-37.6,54.15,2.0,25,,
2434,SRTRANSFIN,-37.6,54.15,1.0,25,,
2435,SRTRANSFIN,-37.6,54.15,1.0,25,,
2436,SRTRANSFIN,-37.6,54.15,1.0,25,,
2437,SRTRANSFIN,-37.6,54.15,9.0,25,,
2438,SRTRANSFIN,-37.6,54.15,1.0,25,,
2439,SRTRANSFIN,-37.6,54.15,4.0,25,,
2440,SRTRANSFIN,-37.6,54.15,2.0,25,,
2441,SRTRANSFIN,-37.6,54.15,2.0,25,,
2442,SRTRANSFIN,-37.6,54.15,5.0,25,,
2443,SRTRANSFIN,-37.6,54.15,1.0,25,,
2444,SRTRANSFIN,-37.6,54.15,3.0,25,,
2445,SRTRANSFIN,-37.6,54.15,1.0,25,,
2446,SRTRANSFIN,-37.6,54.15,3.0,25,,
2447,SRTRANSFIN,-37.6,54.15,1.0,25,,
2448,SRTRANSFIN,-37.6,54.15,1.0,25,,
2449,SRTRANSFIN,-37.6,54.15,1.0,25,,
2450,SRTRANSFIN,-37.6,54.15,20663.0,25,,
2451,SRTRANSFIN,-37.6,54.15,1.0,25,,
2452,SRTRANSFIN,-37.6,54.15,4.0,25,,
2453,SRTRANSFIN,-37.6,54.15,28.0,25,,
2454,SRTRANSFIN,-37.6,54.15,18.0,25,,
2455,SRTRANSFIN,-37.6,54.15,5.0,25,,
2456,SRTRANSFIN,-37.6,54.15,11.0,25,,
2457,SRTRANSFIN,-37.6,54.15,8.0,25,,
2458,SRTRANSFIN,-37.6,54.15,2.0,25,,
2459,SRTRANSFIN,-37.6,54.15,3.0,25,,
2460,SRTRANSFIN,-37.6,54.15,3.0,25,,
2461,SRTRANSFIN,-37.6,54.15,5.0,25,,
2462,SRTRANSFIN,-37.6,54.15,3.0,25,,
2463,SRTRANSFIN,-37.6,54.15,2.0,25,,
2464,SRTRANSFIN,-37.6,54.15,1.0,25,,
2465,SRTRANSFIN,-37.6,54.15,1.0,25,,
2466,SRTRANSFIN,-37.6,54.15,1.0,25,,
2467,SRTRANSFIN,-37.6,54.15,9.0,25,,
2468,SRTRANSFIN,-37.6,54.15,1.0,25,,
2469,SRTRANSFIN,-37.6,54.15,4.0,25,,
2470,SRTRANSFIN,-37.6,54.15,2.0,25,,
2471,SRTRANSFIN,-37.6,54.15,2.0,25,,
2472,SRTRANSFIN,-37.6,54.15,5.0,25,,
2473,SRTRANSFIN,-37.6,54.15,1.0,25,,
2474,SRTRANSFIN,-37.6,54.15,3.0,25,,
2475,SRTRANSFIN,-37.6,54.15,1.0,25,,
2476,SRTRANSFIN,-37.6,54.15,3.0,25,,
2477,SRTRANSFIN,-37.6,54.15,1.0,25,,
2478,SRTRANSFIN,-37.6,54.15,1.0,25,,
2479,SRTRANSFIN,-37.6,54.15,1.0,25,,
2480,SRTRANSFIN,-37.6,54.15,20663.0,25,,
2481,SRTRANSFIN,-37.6,54.15,1.0,25,,
2482,SRTRANSFIN,-37.6,54.15,4.0,25,,
2483,SRTRANSFIN,-37.6,54.15,28.0,25,,
2484,SRTRANSFIN,-37.6,54.15,18.0,25,,
2485,SRTRANSFIN,-37.6,54.15,5.0,25,,
2486,SRTRANSFIN,-37.6,54.15,11.0,25,,
2487,SRTRANSFIN,-37.6,54.15,8.0,25,,
2488,SRTRANSFIN,-37.6,54.15,2.0,25,,
2489,SRTRANSFIN,-37.6,54.15,3.0,25,,
2490,SRTRANSFIN,-37.6,54.15,3.0,25,,
2491,SRTRANSFIN,-37.6,54.15,5.0,25,,
2492,SRTRANSFIN,-37.6,54.15,3.0,25,,
2493,SRTRANSFIN,-37.6,54.15,2.0,25,,
2494,SRTRANSFIN,-37.6,54.15,1.0,25,,
2495,SRTRANSFIN,-37.6,54.15,1.0,25,,
2496,SRTRANSFIN,-37.6,54.15,1.0,25,,
2497,SRTRANSFIN,-37.6,54.15,9.0,25,,
2498,SRTRANSFIN,-37.6,54.15,1.0,25,,
2499,SRTRANSFIN,-37.6,54.15,4.0,25,,
2500,SRTRANSFIN,-37.6,54.15,2.0,25,,
2501,SRTRANSFIN,-37.6,54.15,2.0,25,,
2502,SRTRANSFIN,-37.6,54.15,5.0,25,,
2503,SRTRANSFIN,-37.6,54.15,1.0,25,,
2504,SRTRANSFIN,-37.6,54.15,3.0,25,,
2505,SRTRANSFIN,-37.6,54.15,1.0,25,,
2506,SRTRANSFIN,-37.6,54.15,3.0,25,,
2507,SRTRANSFIN,-37.6,54.15,1.0,25,,
2508,SRTRANSFIN,-37.6,54.15,1.0,25,,
2509,SRTRANSFIN,-37.6,54.15,1.0,25,,
2532,SUNPHARMA,-8.3,252.71,58353.0,1801025,,
2534,SUNTV,-6.95,47.22,13472.0,230549,,
2566,TATACHEM,-2.9,27.60,10691.0,237766,,
2569,TATAELXSI,-15.15,158.67,36197.0,130796,,
2570,TATAGLOBAL,-2.6,53.45,17958.0,597913,,
2573,TATAMOTORS,-5.05,452.20,114304.0,5825068,,
2574,TATAMTRDVR,-1.6,32.80,12947.0,1867633,,
2575,TATAPOWER,-2.35,79.60,40340.0,5124225,,
2576,TATASTEEL,2.15,681.49,438.0,27615,,
2577,TATASTEEL,2.15,681.49,125216.0,27615,,
2578,TATASTEEL,2.15,681.49,438.0,837931,,
2579,TATASTEEL,2.15,681.49,125216.0,837931,,
2595,TCS,2.35,387.21,71365.0,815426,,
2598,TECHM,-6.9,83.44,34308.0,404503,,
2626,TITAN,-13.7,121.06,41684.0,322409,,
2629,TORNTPHARM,-21.8,37.84,24081.0,82364,,
2630,TORNTPOWER,-6.15,16.17,7723.0,221372,,
2647,TVSMOTOR,-8.2,46.42,13400.0,130946,,
2652,UBL,-16.35,43.39,19124.0,172887,,
2659,UJJIVAN,-3.2,103.46,27672.0,578199,,
2660,ULTRACEMCO,0.25,94.86,15232.0,57806,,
2665,UNIONBANK,-3.45,83.64,31307.0,1801280,,
2670,UPL,-5.55,130.10,53357.0,863327,,
2687,VEDL,-0.5,93.58,31956.0,1235152,,
2715,VOLTAS,-8.45,138.90,33145.0,314828,,
2738,WIPRO,-2.2,33.14,18341.0,535133,,
2745,YESBANK,-6.5,"1,630.82",607669.0,81120223,,
2746,ZEEL,-13.85,851.39,229103.0,6964294,,
2747,ZEEL,-13.85,851.39,40.0,6964294,,
2748,ZEEL,-13.85,851.39,229103.0,3668377,,
2749,ZEEL,-13.85,851.39,40.0,3668377,,
